<svg width="27" height="19" viewBox="0 0 27 19" fill="none" xmlns="http://www.w3.org/2000/svg">
<path d="M5.93325 6.8125C7.1014 6.8125 8.24331 7.1589 9.21459 7.80788C10.1859 8.45687 10.9429 9.3793 11.3899 10.4585C11.8369 11.5378 11.9539 12.7253 11.726 13.871C11.4981 15.0167 10.9356 16.0691 10.1096 16.8951C9.2836 17.7211 8.2312 18.2836 7.0855 18.5115C5.9398 18.7394 4.75225 18.6224 3.67303 18.1754C2.5938 17.7284 1.67137 16.9714 1.02238 16.0001C0.373396 15.0288 0.027 13.8869 0.027 12.7188L0 11.875C0 8.74213 1.24453 5.73757 3.4598 3.5223C5.67507 1.30703 8.67963 0.0625 11.8125 0.0625V3.4375C10.704 3.43452 9.60587 3.65132 8.58167 4.07537C7.55746 4.49942 6.62748 5.1223 5.8455 5.908C5.54157 6.21135 5.2612 6.53742 5.00681 6.88337C5.30888 6.83612 5.61769 6.81081 5.93156 6.81081L5.93325 6.8125ZM21.1208 6.8125C22.2889 6.8125 23.4308 7.1589 24.4021 7.80788C25.3734 8.45687 26.1304 9.3793 26.5774 10.4585C27.0244 11.5378 27.1414 12.7253 26.9135 13.871C26.6856 15.0167 26.1231 16.0691 25.2971 16.8951C24.4711 17.7211 23.4187 18.2836 22.273 18.5115C21.1273 18.7394 19.9398 18.6224 18.8605 18.1754C17.7813 17.7284 16.8589 16.9714 16.2099 16.0001C15.5609 15.0288 15.2145 13.8869 15.2145 12.7188L15.1875 11.875C15.1875 8.74213 16.432 5.73757 18.6473 3.5223C20.8626 1.30703 23.8671 0.0625 27 0.0625V3.4375C25.8915 3.43452 24.7934 3.65132 23.7692 4.07537C22.745 4.49942 21.815 5.1223 21.033 5.908C20.7291 6.21135 20.4487 6.53742 20.1943 6.88337C20.4964 6.83612 20.8052 6.81081 21.1208 6.81081V6.8125Z" fill="#99839E"/>
</svg>
