<svg width="40" height="40" viewBox="0 0 40 40" fill="none" xmlns="http://www.w3.org/2000/svg">
<circle cx="20" cy="20" r="20" fill="#15841A"/>
<g clip-path="url(#clip0)">
<path d="M26.5 12.793H23.1426V11.7031C23.1426 11.3984 23.0664 11.1172 22.9141 10.8594C22.7617 10.6016 22.5566 10.3965 22.2988 10.2441C22.041 10.0918 21.7598 10.0156 21.4551 10.0156H19.2051C19.0293 10.0156 18.8535 10.0449 18.6777 10.1035C18.502 10.1621 18.3467 10.2441 18.2119 10.3496C18.0771 10.4551 17.957 10.5752 17.8516 10.71C17.7461 10.8447 17.6641 11 17.6055 11.1758C17.5469 11.3516 17.5176 11.5273 17.5176 11.7031V12.793H14.125C13.8086 12.793 13.542 12.9014 13.3252 13.1182C13.1084 13.335 13 13.6016 13 13.918V26.8555C13 27.1602 13.1084 27.4238 13.3252 27.6465C13.542 27.8691 13.8086 27.9805 14.125 27.9805H26.5C26.8164 27.9805 27.083 27.8691 27.2998 27.6465C27.5166 27.4238 27.625 27.1602 27.625 26.8555V13.918C27.625 13.6016 27.5166 13.335 27.2998 13.1182C27.083 12.9014 26.8164 12.793 26.5 12.793ZM18.6426 11.7031C18.6426 11.5508 18.6982 11.4189 18.8096 11.3076C18.9209 11.1963 19.0527 11.1406 19.2051 11.1406H21.4551C21.6074 11.1406 21.7393 11.1963 21.8506 11.3076C21.9619 11.4189 22.0176 11.5508 22.0176 11.7031V12.793H18.6426V11.7031ZM26 26.3164H14.5V14.2285H17.5176V15.0781C17.5176 15.1133 17.5234 15.1631 17.5352 15.2275C17.5469 15.292 17.5967 15.377 17.6846 15.4824C17.7725 15.5879 17.9043 15.6406 18.0801 15.6406C18.2676 15.6406 18.4082 15.5938 18.502 15.5C18.5957 15.4062 18.6426 15.3125 18.6426 15.2188V14.2285H22.0176V15.1309L22.0439 15.2627L22.123 15.4385L22.29 15.5791L22.5801 15.6406C22.6855 15.6406 22.7764 15.6201 22.8525 15.5791C22.9287 15.5381 22.9844 15.4912 23.0195 15.4385C23.0547 15.3857 23.0811 15.3301 23.0986 15.2715C23.1162 15.2129 23.1309 15.166 23.1426 15.1309V14.2285H26V26.3164Z" fill="white"/>
<path d="M26 26.3164H14.5V14.2285H17.5176V15.0781C17.5176 15.1133 17.5234 15.1631 17.5352 15.2275C17.5469 15.292 17.5967 15.377 17.6846 15.4824C17.7725 15.5879 17.9043 15.6406 18.0801 15.6406C18.2676 15.6406 18.4082 15.5938 18.502 15.5C18.5957 15.4062 18.6426 15.3125 18.6426 15.2188V14.2285H22.0176V15.1309L22.0439 15.2627L22.123 15.4385L22.29 15.5791L22.5801 15.6406C22.6855 15.6406 22.7764 15.6201 22.8525 15.5791C22.9287 15.5381 22.9844 15.4912 23.0195 15.4385C23.0547 15.3857 23.0811 15.3301 23.0986 15.2715C23.1162 15.2129 23.1309 15.166 23.1426 15.1309V14.2285H26V26.3164Z" fill="white"/>
</g>
<defs>
<clipPath id="clip0">
<rect x="13" y="10" width="14.625" height="18" fill="white"/>
</clipPath>
</defs>
</svg>
