<svg width="60" height="60" viewBox="0 0 60 60" fill="none" xmlns="http://www.w3.org/2000/svg">
<path d="M37.6875 19C38.8754 19 39.8912 19.4218 40.7347 20.2653C41.5782 21.1088 42 22.1246 42 23.3125V37.6875C42 38.8754 41.5782 39.8912 40.7347 40.7347C39.8912 41.5782 38.8754 42 37.6875 42H34.8724V33.0905H37.8522L38.3014 29.6165H34.8724V27.4004C34.8724 26.8414 34.9897 26.4221 35.2243 26.1426C35.4589 25.8631 35.9156 25.7233 36.5944 25.7233L38.4212 25.7083V22.6087C37.7923 22.5189 36.9039 22.474 35.7559 22.474C34.3982 22.474 33.3126 22.8733 32.499 23.6719C31.6854 24.4705 31.2786 25.5985 31.2786 27.056V29.6165H28.2839V33.0905H31.2786V42H23.3125C22.1246 42 21.1088 41.5782 20.2653 40.7347C19.4218 39.8912 19 38.8754 19 37.6875V23.3125C19 22.1246 19.4218 21.1088 20.2653 20.2653C21.1088 19.4218 22.1246 19 23.3125 19H37.6875Z" fill="#9C9388"/>
<circle cx="30" cy="30" r="29.5" stroke="#C5C1C1"/>
</svg>
