<svg width="30" height="30" viewBox="0 0 30 30" fill="none" xmlns="http://www.w3.org/2000/svg">
<g clip-path="url(#clip0)">
<path d="M18.8438 9.5C19.4377 9.5 19.9456 9.71088 20.3673 10.1326C20.7891 10.5544 21 11.0623 21 11.6562V18.8438C21 19.4377 20.7891 19.9456 20.3673 20.3673C19.9456 20.7891 19.4377 21 18.8438 21H17.4362V16.5452H18.9261L19.1507 14.8083H17.4362V13.7002C17.4362 13.4207 17.4948 13.211 17.6121 13.0713C17.7294 12.9315 17.9578 12.8617 18.2972 12.8617L19.2106 12.8542V11.3044C18.8962 11.2594 18.4519 11.237 17.8779 11.237C17.1991 11.237 16.6563 11.4366 16.2495 11.8359C15.8427 12.2352 15.6393 12.7993 15.6393 13.528V14.8083H14.1419V16.5452H15.6393V21H11.6562C11.0623 21 10.5544 20.7891 10.1326 20.3673C9.71088 19.9456 9.5 19.4377 9.5 18.8438V11.6562C9.5 11.0623 9.71088 10.5544 10.1326 10.1326C10.5544 9.71088 11.0623 9.5 11.6562 9.5H18.8438Z" fill="white"/>
</g>
<circle cx="15" cy="15" r="14.5" stroke="white"/>
<defs>
<clipPath id="clip0">
<rect x="9.5" y="9.5" width="11.5" height="11.5" fill="white"/>
</clipPath>
</defs>
</svg>
