<svg width="22" height="20" viewBox="0 0 22 20" fill="none" xmlns="http://www.w3.org/2000/svg">
<path d="M11.497 3.85847C7.92219 -1.66329 0.687012 1.34479 0.687012 7.35983C0.687012 11.8767 10.606 18.9422 11.497 19.861C12.394 18.9422 21.8197 11.8767 21.8197 7.35983C21.8197 1.39039 15.0784 -1.66329 11.497 3.85847Z" fill="white"/>
</svg>
